,date,city,rent,product
0,2021-01-01,Konya,8,1865
1,2021-01-02,Uşak,12,1747
2,2021-01-03,Iğdır,1,1289
3,2021-01-04,Artvin,13,1848
4,2021-01-05,Kilis,15,1695
5,2021-01-06,Ardahan,5,1062
6,2021-01-07,Sakarya,2,1618
7,2021-01-08,Elazığ,9,1076
8,2021-01-09,Yozgat,17,1320
9,2021-01-10,Kars,10,1623
10,2021-01-11,Nevşehir,4,1127
11,2021-01-12,Aksaray,2,1550
12,2021-01-13,Trabzon,1,1454
13,2021-01-14,Artvin,12,1513
14,2021-01-15,Uşak,11,1399
15,2021-01-16,Rize,17,1116
16,2021-01-17,Elazığ,14,1160
17,2021-01-18,Ankara,6,1278
18,2021-01-19,Bayburt,17,1272
19,2021-01-20,Hatay,1,1901
20,2021-01-21,Hakkari,5,1825
21,2021-01-22,Kırıkkale,11,1353
22,2021-01-23,Çorum,6,1420
23,2021-01-24,Gaziantep,12,1274
24,2021-01-25,Elazığ,14,1715
25,2021-01-26,Kahramanmaraş,14,1664
26,2021-01-27,Mardin,11,1053
27,2021-01-28,Tekirdağ,15,1647
28,2021-01-29,Bitlis,5,1418
29,2021-01-30,Bilecik,2,1819
30,2021-01-31,Kahramanmaraş,7,1190
31,2021-02-01,Burdur,5,1713
32,2021-02-02,Malatya,3,1754
33,2021-02-03,Kırklareli,3,1103
34,2021-02-04,Ordu,12,1234
35,2021-02-05,Karabük,14,1896
36,2021-02-06,Erzurum,15,1543
37,2021-02-07,Afyon,12,1138
38,2021-02-08,Aydın,15,1313
39,2021-02-09,Bingöl,5,1858
40,2021-02-10,Muğla,15,1283
41,2021-02-11,Kırklareli,15,1779
42,2021-02-12,Kars,3,1514
43,2021-02-13,Elazığ,6,1942
44,2021-02-14,Isparta,14,1245
45,2021-02-15,Muş,4,1726
46,2021-02-16,Iğdır,10,1218
47,2021-02-17,Muğla,13,1861
48,2021-02-18,Elazığ,11,1593
49,2021-02-19,Şırnak,14,1788
50,2021-02-20,Muğla,8,1785
51,2021-02-21,Bursa,9,1198
52,2021-02-22,Hatay,15,1891
53,2021-02-23,Çankırı,2,1518
54,2021-02-24,İçel (Mersin),15,1168
55,2021-02-25,Samsun,8,1799
56,2021-02-26,Kocaeli,12,1111
57,2021-02-27,İzmir,3,1757
58,2021-02-28,Bitlis,11,1114
59,2021-03-01,Adana,6,1165
60,2021-03-02,Adana,16,1450
61,2021-03-03,Karaman,2,1500
62,2021-03-04,Şırnak,6,1792
63,2021-03-05,Gümüşhane,1,1454
64,2021-03-06,Kocaeli,8,1391
65,2021-03-07,Malatya,11,1099
66,2021-03-08,Kırşehir,10,1544
67,2021-03-09,Rize,17,1162
68,2021-03-10,Kırıkkale,2,1632
69,2021-03-11,Kars,12,1139
70,2021-03-12,Batman,15,1703
71,2021-03-13,Antalya,11,1060
72,2021-03-14,Ordu,5,1980
73,2021-03-15,Karaman,4,1525
74,2021-03-16,Kahramanmaraş,10,1824
75,2021-03-17,Gaziantep,15,1259
76,2021-03-18,Manisa,9,1627
77,2021-03-19,Isparta,6,1635
78,2021-03-20,Bayburt,12,1841
79,2021-03-21,Yozgat,1,1085
80,2021-03-22,Afyon,3,1515
81,2021-03-23,Çanakkale,16,1979
82,2021-03-24,Yalova,16,1247
83,2021-03-25,Osmaniye,1,1129
84,2021-03-26,Adıyaman,1,1092
85,2021-03-27,Karabük,9,1039
86,2021-03-28,Isparta,8,1907
87,2021-03-29,İçel (Mersin),1,1695
88,2021-03-30,İçel (Mersin),8,1198
89,2021-03-31,Antalya,16,1859
90,2021-04-01,Bitlis,3,1746
91,2021-04-02,Samsun,15,1925
92,2021-04-03,Gümüşhane,10,1434
93,2021-04-04,Isparta,12,1424
94,2021-04-05,Trabzon,15,1527
95,2021-04-06,İstanbul,14,1663
96,2021-04-07,Burdur,1,1450
97,2021-04-08,Ağrı,11,1239
98,2021-04-09,Balıkesir,9,1807
99,2021-04-10,Ankara,14,1950
100,2021-04-11,Kastamonu,7,1141
101,2021-04-12,Giresun,16,1365
102,2021-04-13,Van,12,1740
103,2021-04-14,Muş,7,1588
104,2021-04-15,Trabzon,4,1002
105,2021-04-16,Kilis,4,1927
106,2021-04-17,Bayburt,4,1696
107,2021-04-18,İçel (Mersin),13,1714
108,2021-04-19,Artvin,6,1137
109,2021-04-20,Şırnak,11,1851
110,2021-04-21,Adıyaman,8,1949
111,2021-04-22,Gaziantep,11,1781
112,2021-04-23,Bursa,5,1357
113,2021-04-24,Isparta,11,1361
114,2021-04-25,Konya,9,1700
115,2021-04-26,Muğla,3,1230
116,2021-04-27,Kırklareli,12,1628
117,2021-04-28,Bolu,11,1859
118,2021-04-29,Erzincan,12,1619
119,2021-04-30,Ankara,3,1925
120,2021-05-01,Kocaeli,2,1253
121,2021-05-02,Aksaray,16,1958
122,2021-05-03,Konya,10,1293
123,2021-05-04,Kırklareli,9,1170
124,2021-05-05,Kırıkkale,9,1386
125,2021-05-06,Zonguldak,17,1583
126,2021-05-07,Isparta,13,1749
127,2021-05-08,Antalya,16,1733
128,2021-05-09,Aksaray,5,1116
129,2021-05-10,Rize,17,1302
130,2021-05-11,Gümüşhane,6,1565
131,2021-05-12,İzmir,2,1591
132,2021-05-13,Kırşehir,12,1190
133,2021-05-14,Hatay,13,1803
134,2021-05-15,Elazığ,15,1697
135,2021-05-16,Ağrı,8,1683
136,2021-05-17,Gümüşhane,17,1252
137,2021-05-18,İzmir,13,1111
138,2021-05-19,Kastamonu,11,1774
139,2021-05-20,Hakkari,9,1514
140,2021-05-21,Konya,12,1279
141,2021-05-22,Gaziantep,1,1022
142,2021-05-23,Siirt,6,1837
143,2021-05-24,Hatay,2,1614
144,2021-05-25,Tunceli,1,1375
145,2021-05-26,Batman,14,1353
146,2021-05-27,Hatay,16,1144
147,2021-05-28,Muş,16,1479
148,2021-05-29,Batman,2,1784
149,2021-05-30,Eskişehir,3,1294
150,2021-05-31,Hakkari,7,1519
151,2021-06-01,Adıyaman,3,1893
152,2021-06-02,Mardin,14,1139
153,2021-06-03,Rize,14,1461
154,2021-06-04,Kırşehir,8,1077
155,2021-06-05,Diyarbakır,17,1501
156,2021-06-06,Batman,5,1584
157,2021-06-07,Kayseri,5,1630
158,2021-06-08,Nevşehir,13,1462
159,2021-06-09,Ardahan,11,1388
160,2021-06-10,Artvin,15,1771
161,2021-06-11,İzmir,13,1577
162,2021-06-12,Muş,11,1619
163,2021-06-13,Niğde,2,1125
164,2021-06-14,İzmir,4,1557
165,2021-06-15,Elazığ,4,1445
166,2021-06-16,Kırklareli,11,1256
167,2021-06-17,Bingöl,2,1542
168,2021-06-18,Bilecik,16,1685
169,2021-06-19,İçel (Mersin),1,1763
170,2021-06-20,Ardahan,8,1908
171,2021-06-21,Manisa,10,1110
172,2021-06-22,Ağrı,3,1384
173,2021-06-23,Nevşehir,14,1197
174,2021-06-24,Sakarya,16,1977
175,2021-06-25,Mardin,2,1517
176,2021-06-26,Kars,6,1851
177,2021-06-27,Edirne,5,1141
178,2021-06-28,Sakarya,6,1019
179,2021-06-29,Erzincan,4,1121
180,2021-06-30,Muğla,5,1210
181,2021-07-01,Nevşehir,8,1627
182,2021-07-02,Afyon,12,1460
183,2021-07-03,Kırıkkale,13,1607
184,2021-07-04,Balıkesir,9,1293
185,2021-07-05,Afyon,14,1735
186,2021-07-06,Çorum,5,1924
187,2021-07-07,Çanakkale,6,1384
188,2021-07-08,Batman,10,1937
189,2021-07-09,Karaman,4,1237
190,2021-07-10,Kilis,4,1957
191,2021-07-11,Eskişehir,1,1240
192,2021-07-12,Afyon,14,1270
193,2021-07-13,Muş,11,1677
194,2021-07-14,Kahramanmaraş,6,1447
195,2021-07-15,Erzurum,5,1882
196,2021-07-16,Van,9,1353
197,2021-07-17,Trabzon,15,1327
198,2021-07-18,Sakarya,7,1306
199,2021-07-19,Gümüşhane,13,1529
200,2021-07-20,İzmir,9,1281
201,2021-07-21,Sivas,16,1182
202,2021-07-22,Giresun,14,1470
203,2021-07-23,Tekirdağ,2,1787
204,2021-07-24,Kahramanmaraş,1,1164
205,2021-07-25,Amasya,9,1634
206,2021-07-26,Hakkari,16,1857
207,2021-07-27,Gaziantep,1,1277
208,2021-07-28,Malatya,6,1219
209,2021-07-29,Nevşehir,10,1892
210,2021-07-30,Aydın,2,1339
211,2021-07-31,Zonguldak,15,1703
212,2021-08-01,Tekirdağ,16,1316
213,2021-08-02,Karabük,8,1469
214,2021-08-03,Rize,2,1389
215,2021-08-04,Kırklareli,4,1666
216,2021-08-05,Karaman,3,1019
217,2021-08-06,Bingöl,5,1797
218,2021-08-07,Kocaeli,5,1001
219,2021-08-08,Eskişehir,8,1629
220,2021-08-09,Bingöl,10,1499
221,2021-08-10,Bartın,15,1467
222,2021-08-11,Karabük,4,1617
223,2021-08-12,Isparta,9,1870
224,2021-08-13,Kırşehir,5,1180
225,2021-08-14,İçel (Mersin),15,1276
226,2021-08-15,Van,14,1971
227,2021-08-16,Konya,2,1211
228,2021-08-17,Trabzon,2,1628
229,2021-08-18,Kırşehir,8,1879
230,2021-08-19,Malatya,9,1190
231,2021-08-20,Ankara,6,1201
232,2021-08-21,Tekirdağ,11,1586
233,2021-08-22,İçel (Mersin),12,1723
234,2021-08-23,Kırıkkale,15,1766
235,2021-08-24,Sakarya,8,1100
236,2021-08-25,Kırşehir,8,1977
237,2021-08-26,Bolu,3,1393
238,2021-08-27,İstanbul,13,1446
239,2021-08-28,Aydın,6,1545
240,2021-08-29,Denizli,16,1678
241,2021-08-30,Kayseri,11,1238
242,2021-08-31,Erzincan,16,1890
243,2021-09-01,Giresun,8,1703
244,2021-09-02,Konya,13,1084
245,2021-09-03,Zonguldak,7,1569
246,2021-09-04,Ankara,9,1170
247,2021-09-05,Ankara,17,1587
248,2021-09-06,Zonguldak,5,1335
249,2021-09-07,Bursa,17,1113
250,2021-09-08,İzmir,14,1333
251,2021-09-09,Adana,16,1472
252,2021-09-10,Çanakkale,13,1134
253,2021-09-11,Sivas,1,1051
254,2021-09-12,Sivas,3,1106
255,2021-09-13,Bartın,10,1361
256,2021-09-14,Bolu,13,1937
257,2021-09-15,Uşak,15,1035
258,2021-09-16,Malatya,3,1952
259,2021-09-17,Kırşehir,2,1562
260,2021-09-18,Kırklareli,16,1971
261,2021-09-19,Şanlıurfa,10,1593
262,2021-09-20,Isparta,17,1625
263,2021-09-21,Edirne,9,1822
264,2021-09-22,Bartın,12,1522
265,2021-09-23,Sakarya,2,1205
266,2021-09-24,Kırıkkale,11,1334
267,2021-09-25,Edirne,8,1174
268,2021-09-26,Çankırı,6,1106
269,2021-09-27,Bingöl,5,1300
270,2021-09-28,Hakkari,5,1947
271,2021-09-29,Nevşehir,3,1638
272,2021-09-30,Kocaeli,10,1661
273,2021-10-01,Kırklareli,3,1607
274,2021-10-02,Burdur,17,1415
275,2021-10-03,Düzce,8,1856
276,2021-10-04,Zonguldak,14,1896
277,2021-10-05,Osmaniye,14,1778
278,2021-10-06,İçel (Mersin),5,1766
279,2021-10-07,Sakarya,17,1788
280,2021-10-08,Şanlıurfa,9,1075
281,2021-10-09,Çankırı,10,1815
282,2021-10-10,Konya,6,1078
283,2021-10-11,Manisa,3,1703
284,2021-10-12,Hatay,12,1429
285,2021-10-13,Eskişehir,3,1417
286,2021-10-14,Giresun,10,1033
287,2021-10-15,Çorum,6,1146
288,2021-10-16,Siirt,16,1934
289,2021-10-17,Elazığ,2,1566
290,2021-10-18,Muğla,2,1239
291,2021-10-19,Ankara,14,1761
292,2021-10-20,Batman,11,1862
293,2021-10-21,Van,2,1828
294,2021-10-22,Gaziantep,12,1971
295,2021-10-23,Van,15,1517
296,2021-10-24,Hakkari,11,1128
297,2021-10-25,Bingöl,8,1158
298,2021-10-26,Kütahya,5,1183
299,2021-10-27,Tokat,9,1887
300,2021-10-28,Balıkesir,10,1786
301,2021-10-29,Çankırı,4,1493
302,2021-10-30,Trabzon,1,1713
303,2021-10-31,Kayseri,3,1379
304,2021-11-01,Giresun,8,1909
305,2021-11-02,Amasya,11,1437
306,2021-11-03,Van,10,1537
307,2021-11-04,Ardahan,14,1408
308,2021-11-05,Tokat,6,1526
309,2021-11-06,Konya,1,1413
310,2021-11-07,Kırklareli,10,1929
311,2021-11-08,İçel (Mersin),1,1169
312,2021-11-09,Gaziantep,4,1533
313,2021-11-10,Muş,8,1953
314,2021-11-11,Antalya,6,1596
315,2021-11-12,Kahramanmaraş,2,1883
316,2021-11-13,Giresun,14,1869
317,2021-11-14,Manisa,4,1881
318,2021-11-15,Kayseri,8,1197
319,2021-11-16,Çankırı,15,1960
320,2021-11-17,Sinop,12,1715
321,2021-11-18,Kocaeli,15,1198
322,2021-11-19,Afyon,12,1737
323,2021-11-20,Samsun,10,1673
324,2021-11-21,Tekirdağ,14,1639
325,2021-11-22,Ordu,10,1470
326,2021-11-23,Şırnak,6,1760
327,2021-11-24,Sinop,17,1208
328,2021-11-25,Malatya,14,1671
329,2021-11-26,Çanakkale,6,1989
330,2021-11-27,Kilis,5,1182
331,2021-11-28,Şanlıurfa,11,1213
332,2021-11-29,Malatya,4,1082
333,2021-11-30,Kars,13,1644
334,2021-12-01,Şanlıurfa,17,1690
335,2021-12-02,Samsun,16,1400
336,2021-12-03,Karaman,6,1296
337,2021-12-04,Diyarbakır,2,1404
338,2021-12-05,Malatya,5,1109
339,2021-12-06,Hakkari,5,1826
340,2021-12-07,Zonguldak,12,1721
341,2021-12-08,Karabük,10,1847
342,2021-12-09,Antalya,13,1333
343,2021-12-10,Bartın,12,1457
344,2021-12-11,Iğdır,5,1088
345,2021-12-12,Bartın,7,1128
346,2021-12-13,Bitlis,10,1488
347,2021-12-14,Çanakkale,8,1576
348,2021-12-15,Bartın,11,1824
349,2021-12-16,Denizli,1,1610
350,2021-12-17,Denizli,17,1504
351,2021-12-18,Yalova,13,1962
352,2021-12-19,Rize,7,1964
353,2021-12-20,Erzurum,9,1272
354,2021-12-21,Kayseri,3,1053
355,2021-12-22,Burdur,7,1942
356,2021-12-23,Tokat,12,1891
357,2021-12-24,Bartın,8,1255
358,2021-12-25,Uşak,9,1689
359,2021-12-26,Şanlıurfa,13,1255
360,2021-12-27,Bursa,1,1364
361,2021-12-28,Denizli,12,1934
362,2021-12-29,Erzincan,16,1619
363,2021-12-30,Rize,6,1130
